Place,Name,Sex,BirthDate,Age,State,Equipment,Division,BodyweightKg,WeightClassKg,Squat1Kg,Squat2Kg,Squat3Kg,Squat4Kg,Best3SquatKg,Bench1Kg,Bench2Kg,Bench3Kg,Bench4Kg,Best3BenchKg,Deadlift1Kg,Deadlift2Kg,Deadlift3Kg,Deadlift4Kg,Best3DeadliftKg,TotalKg,Event
1,Becky Rouse,F,1980-06-11,41,TX,Raw,DT Novice,58.6,60,85,90,-92.5,,90,45,-50,-50,,45,107.5,110,112.5,,112.5,247.5,SBD
1,Regina Sowell,F,1984-04-26,37,TX,Raw,DT Open,58.27,60,112.5,-125,127.5,-130,127.5,67.5,-75,-75,,67.5,127.5,137.5,140,142.5,140,335,SBD
2,Becky Rouse,F,1980-06-11,41,TX,Raw,DT Open,58.6,60,85,90,-92.5,,90,45,-50,-50,,45,107.5,110,112.5,,112.5,247.5,SBD
1,Megan Roberts,F,1994-11-09,26,TX,Raw,DT Open,66.04,67.5,122.5,127.5,-137.5,,127.5,75,-77.5,77.5,,77.5,122.5,130,-137.5,,130,335,SBD
1,Amaris Granado,F,1997-04-26,24,TX,Raw,DT Open,74.11,75,112.5,-120,130,,130,52.5,55,60,-65,60,112.5,122.5,127.5,-132.5,127.5,317.5,SBD
1,Regina Sowell,F,1984-04-26,37,TX,Raw,DT Sub Master,58.27,60,112.5,-125,127.5,-130,127.5,67.5,-75,-75,,67.5,127.5,137.5,140,142.5,140,335,SBD
1,Brinklie Brown,F,2006-10-16,15,,Raw,DT Teen,59.32,60,92.5,97.5,-102.5,,97.5,-45,45,-47.5,,45,102.5,110,115,117.5,115,257.5,SBD
1,Becky Rouse,F,1980-06-11,41,TX,Raw,M1,58.6,60,85,90,-92.5,,90,45,-50,-50,,45,107.5,110,112.5,,112.5,247.5,SBD
1,Ashley Moreno,F,1994-05-13,27,TX,Raw,Open,66.58,67.5,62.5,70,80,,80,-47.5,47.5,-52.5,,47.5,90,102.5,112.5,117.5,112.5,240,SBD
1,Stefanie Herod,F,1992-09-09,29,TX,Raw,Open,99.8,100,142.5,155,167.5,,167.5,87.5,92.5,-100,,92.5,187.5,197.5,205,215,205,465,SBD
1,Scarlette Odell,F,2007-07-03,14,TX,Raw,Teen,60.5,67.5,,,,,,37.5,40,45,,45,72.5,75,80,85,80,125,BD
1,Jack Phillips,M,1998-03-17,,TX,Raw,DT Open,80.2,82.5,140,150,157.5,,157.5,85,90,-107.5,,90,177.5,185,192.5,207.5,192.5,440,SBD
1,Cornelius Smith,M,1993-05-03,28,TX,Raw,DT P/F/M,77.83,82.5,160,-175,-175,,160,110,-115,-120,,110,182.5,192.5,-202.5,,192.5,462.5,SBD
1,JP Hucklebridge,M,,22,TX,Raw,DT P/F/M,85.82,90,157.5,-170,-170,,157.5,92.5,-100,-100,,92.5,187.5,197.5,205,-215,205,455,SBD
1,Konrad Roberts,M,1984-05-25,37,TX,Raw,DT Sub Master,88.81,90,147.5,155,167.5,,167.5,110,117.5,120,,120,-205,215,225,-227.5,225,512.5,SBD
1,Blaine Sowell,M,2007-07-07,14,TX,Raw,DT Teen,56.9,60,82.5,92.5,97.5,-102.5,97.5,45,-55,-55,,45,125,130,137.5,140,137.5,280,SBD
1,Jacob Baesler,M,2004-10-30,17,TX,Raw,DT Teen,89,90,185,-190,195,,195,102.5,107.5,115,,115,175,190,200,205,200,510,SBD
1,John Trent,M,1963-03-31,58,TX,Raw,M2,85.81,90,182.5,192.5,,,192.5,105,117.5,-137.5,,117.5,205,215,227.5,,227.5,537.5,SBD
1,Jay Mullens,M,1989-01-26,32,TX,Raw,Open,147.91,140+,285,,,,285,220,235,240,250,240,295,320,342.5,352.5,342.5,867.5,SBD
1,Cody Lee,M,1987-10-05,34,TX,Raw,SM,88,90,145,150,155,,155,100,105,110,,110,190,197.5,200,205,200,465,SBD
1,PJ Armstrong,M,1984-10-23,37,TX,Raw,SM,93.25,100,140,150,160,,160,97.5,102.5,112.5,,112.5,177.5,187.5,197.5,205,197.5,470,SBD
1,Josh Aleman,M,2004-03-11,17,TX,Raw,Teen,81.73,82.5,-140,140,-152.5,,140,112.5,120,-125,,120,202.5,220,-227.5,,220,480,SBD
1,Christian Kearney,M,1988-09-20,33,TX,Wraps,DT Open,66.31,67.5,222.5,235,242.5,,242.5,130,140,142.5,,142.5,282.5,300,305,312.5,305,690,SBD
1,Kevin Pham,M,1996-06-11,25,TX,Wraps,DT Open,73.4,75,127.5,-137.5,-137.5,,127.5,82.5,87.5,-97.5,,87.5,165,175,-187.5,,175,390,SBD
1,Christian Kearney,M,1988-09-20,33,TX,Wraps,DT Sub Master,66.31,67.5,222.5,235,242.5,,242.5,130,140,142.5,,142.5,282.5,300,305,312.5,305,690,SBD
1,Garrison Conner,M,2004-05-09,17,TX,Wraps,DT Teen,72,75,-142.5,-142.5,142.5,,142.5,82.5,87.5,-90,,87.5,175,180,-185,,180,410,SBD
1,Christian Kearney,M,1988-09-20,33,TX,Wraps,Open,66.31,67.5,222.5,235,242.5,,242.5,130,140,142.5,,142.5,282.5,300,305,312.5,305,690,SBD
1,Kevin Pham,M,1996-06-11,25,TX,Wraps,Open,73.4,75,127.5,-137.5,-137.5,,127.5,82.5,87.5,-97.5,,87.5,165,175,-187.5,,175,390,SBD
1,Jake Dixon,M,1983-04-12,38,TX,Wraps,Open,88,90,247.5,267.5,-280,,267.5,137.5,142.5,150,,150,227.5,240,250,-255,250,667.5,SBD
1,Christian Kearney,M,1988-09-20,33,TX,Wraps,SM,66.31,67.5,222.5,235,242.5,,242.5,130,140,142.5,,142.5,282.5,300,305,312.5,305,690,SBD
1,Jake Dixon,M,1983-04-12,38,TX,Wraps,SM,88,90,247.5,267.5,-280,,267.5,137.5,142.5,150,,150,227.5,240,250,-255,250,667.5,SBD
1,Jesse James #5,M,2006-05-16,15,TX,Single-ply,DT Open,65.31,67.5,120,-130,140,,140,70,-77.5,-77.5,,70,165,180,190,-195,190,400,SBD
1,Andrew Womack,M,1998-10-08,23,TX,Single-ply,DT Open,99.8,100,265,280,,,280,207.5,215,220,,220,230,255,-265,,255,755,SBD
1,Jesse James #5,M,2006-05-16,15,TX,Single-ply,DT Teen,65.31,67.5,120,-130,140,,140,70,-77.5,-77.5,,70,165,180,190,-195,190,400,SBD
1,Jaden Wilson #2,M,2003-07-30,18,TX,Single-ply,Teen,87.9,90,185,205,227.5,,227.5,137.5,147.5,-155,,147.5,170,192.5,205,215,205,580,SBD
1,Elisha Higginbotham,M,2003-01-23,18,TX,Single-ply,Teen,98.36,100,187.5,-205,217.5,,217.5,135,-137.5,137.5,,137.5,165,185,205,-227.5,205,560,SBD
1,Matthew Hargis,M,1997-12-18,23,TX,Raw,DT Int,79.74,82.5,,,,,,132.5,137.5,-140,,137.5,240,-245,-245,,240,377.5,BD
1,Elias Ramirez,M,1997-01-29,24,TX,Raw,Open,95.25,100,,,,,,-80,80,85,,85,162.5,172.5,-182.5,,172.5,257.5,BD
1,Christian Kearney,M,1988-09-20,33,TX,Raw,DT Open,66.31,67.5,,,,,,130,140,142.5,,142.5,282.5,300,305,312.5,305,447.5,BD
1,Kevin Pham,M,1996-06-11,25,TX,Raw,DT Open,73.4,75,,,,,,82.5,87.5,-97.5,,87.5,165,175,-187.5,,175,262.5,BD
1,Christian Kearney,M,1988-09-20,33,TX,Raw,DT Sub Master,66.31,67.5,,,,,,130,140,142.5,,142.5,282.5,300,305,312.5,305,447.5,BD
1,Christian Kearney,M,1988-09-20,33,TX,Raw,Open,66.31,67.5,,,,,,130,140,142.5,,142.5,282.5,300,305,312.5,305,447.5,BD
1,Kevin Pham,M,1996-06-11,25,TX,Raw,Open,73.4,75,,,,,,82.5,87.5,-97.5,,87.5,165,175,-187.5,,175,262.5,BD
1,Christian Kearney,M,1988-09-20,33,TX,Raw,SM,66.31,67.5,,,,,,130,140,142.5,,142.5,282.5,300,305,312.5,305,447.5,BD
1,John Herod,M,1979-04-22,42,TX,Raw,M1,115.76,125,,,,,,167.5,175,-180,,175,,,,,,175,B
1,Joshua Taylor,M,1983-05-24,38,TX,Raw,Open,97.8,100,,,,,,-152.5,160,165,-170,165,,,,,,165,B
2,Elias Ramirez,M,1997-01-29,24,TX,Raw,Open,95.25,100,,,,,,-80,80,85,,85,,,,,,85,B
1,Christian Kearney,M,1988-09-20,33,TX,Raw,DT Open,66.31,67.5,,,,,,130,140,142.5,,142.5,,,,,,142.5,B
1,Christian Kearney,M,1988-09-20,33,TX,Raw,DT Sub Master,66.31,67.5,,,,,,130,140,142.5,,142.5,,,,,,142.5,B
1,Christian Kearney,M,1988-09-20,33,TX,Raw,Open,66.31,67.5,,,,,,130,140,142.5,,142.5,,,,,,142.5,B
1,Christian Kearney,M,1988-09-20,33,TX,Raw,SM,66.31,67.5,,,,,,130,140,142.5,,142.5,,,,,,142.5,B
1,Brett Derrick,M,1973-11-25,47,TX,Single-ply,M1,90.26,100,,,,,,125,137.5,142.5,,142.5,,,,,,142.5,B
1,JP Hucklebridge,M,,22,TX,Raw,DT P/F/M,85.82,90,,,,,,,,,,,187.5,197.5,205,-215,205,205,D
1,Elias Ramirez,M,1997-01-29,24,TX,Raw,Open,95.25,100,,,,,,,,,,,162.5,172.5,-182.5,,172.5,172.5,D
1,Christian Kearney,M,1988-09-20,33,TX,Raw,DT Open,66.31,67.5,,,,,,,,,,,282.5,300,305,312.5,305,305,D
1,Kevin Pham,M,1996-06-11,25,TX,Raw,DT Open,73.4,75,,,,,,,,,,,165,175,-187.5,,175,175,D
1,Christian Kearney,M,1988-09-20,33,TX,Raw,DT Sub Master,66.31,67.5,,,,,,,,,,,282.5,300,305,312.5,305,305,D
1,Christian Kearney,M,1988-09-20,33,TX,Raw,Open,66.31,67.5,,,,,,,,,,,282.5,300,305,312.5,305,305,D
1,Kevin Pham,M,1996-06-11,25,TX,Raw,Open,73.4,75,,,,,,,,,,,165,175,-187.5,,175,175,D
1,Christian Kearney,M,1988-09-20,33,TX,Raw,SM,66.31,67.5,,,,,,,,,,,282.5,300,305,312.5,305,305,D
