Name,WeightClassKg,Division,AgeRange,Sex,Best3SquatKg,Best3BenchKg,Best3DeadliftKg,TotalKg,Event,Equipment,Place
P. Boarman,52,Teen 14-15,14-15,M,127.5,75,137.5,340,SBD,Single-ply,1
David Forman,52,Teen 14-15,14-15,M,110,55,127.5,292.5,SBD,Single-ply,2
D. Yaakou,52,Teen 14-15,14-15,M,110,47.5,112.5,270,SBD,Single-ply,3
Chris Edwards,56,Teen 14-15,14-15,M,165,80,157.5,402.5,SBD,Single-ply,1
C. Howard,67.5,Teen 14-15,14-15,M,147.5,77.5,160,385,SBD,Single-ply,1
B. Raymond,67.5,Teen 14-15,14-15,M,137.5,75,142.5,355,SBD,Single-ply,2
Kevin Ferguson #1,75,Teen 14-15,14-15,M,192.5,115,195,502.5,SBD,Single-ply,1
Tony Marcum,82.5,Teen 14-15,14-15,M,185,112.5,200,497.5,SBD,Single-ply,1
Andy Meadows,90,Teen 14-15,14-15,M,205,140,200,545,SBD,Single-ply,1
C. Wax,125+,Teen 14-15,14-15,M,140,110,105,355,SBD,Single-ply,1
Jeff Campbell,56,Teen 16-17,16-17,M,172.5,92.5,172.5,437.5,SBD,Single-ply,1
M. DeLoach,60,Teen 16-17,16-17,M,160,95,172.5,427.5,SBD,Single-ply,1
Dominic Farley,60,Teen 16-17,16-17,M,150,85,162.5,397.5,SBD,Single-ply,2
C. Cook,67.5,Teen 16-17,16-17,M,155,95,165,415,SBD,Single-ply,1
Chuck Poston,82.5,Teen 16-17,16-17,M,200,102.5,195,497.5,SBD,Single-ply,1
T. Henderson,82.5,Teen 16-17,16-17,M,175,112.5,187.5,475,SBD,Single-ply,2
K. Marcum,82.5,Teen 16-17,16-17,M,185,100,170,455,SBD,Single-ply,3
M. Marshall,110,Teen 16-17,16-17,M,242.5,130,235,607.5,SBD,Single-ply,1
D. Fenton,125+,Teen 16-17,16-17,M,220,137.5,240,597.5,SBD,Single-ply,1
Mike Stagg,60,Teen 18-19,18-19,M,182.5,105,205,492.5,SBD,Single-ply,1
P. Boone,75,Teen 18-19,18-19,M,227.5,110,220,557.5,SBD,Single-ply,1
J. Miller #41,75,Teen 18-19,18-19,M,,,,,SBD,Single-ply,DQ
T. Papalios,82.5,Teen 18-19,18-19,M,255,130,252.5,637.5,SBD,Single-ply,1
S. Wright,82.5,Teen 18-19,18-19,M,205,125,212.5,542.5,SBD,Single-ply,2
K. van der Linden,82.5,Teen 18-19,18-19,M,170,127.5,210,507.5,SBD,Single-ply,3
R. Cox,90,Teen 18-19,18-19,M,215,142.5,205,562.5,SBD,Single-ply,1
W. Travis,90,Teen 18-19,18-19,M,,,,,SBD,Single-ply,DQ
John Wardell,100,Teen 18-19,18-19,M,282.5,187.5,250,720,SBD,Single-ply,1
Joe Raynor,100,Teen 18-19,18-19,M,255,177.5,257.5,690,SBD,Single-ply,2
D. Corder,100,Teen 18-19,18-19,M,232.5,162.5,255,650,SBD,Single-ply,3
M. Marci,100,Teen 18-19,18-19,M,227.5,110,250,587.5,SBD,Single-ply,4
Ben Wax Jr,110,Teen 18-19,18-19,M,245,197.5,260,702.5,SBD,Single-ply,1
Jeff Maynard,125,Teen 18-19,18-19,M,245,152.5,242.5,640,SBD,Single-ply,1
Phillip Wytrwa,52,Juniors,20-23,M,117.5,77.5,160,355,SBD,Single-ply,1
Mike Stagg,60,Juniors,20-23,M,182.5,105,205,492.5,SBD,Single-ply,1
Ray Crane,60,Juniors,20-23,M,182.5,87.5,175,445,SBD,Single-ply,2
R. Childs,67.5,Juniors,20-23,M,197.5,115,195,507.5,SBD,Single-ply,1
Dan Lass,82.5,Juniors,20-23,M,285,182.5,257.5,725,SBD,Single-ply,1
D. Jamieson,82.5,Juniors,20-23,M,272.5,160,245,677.5,SBD,Single-ply,2
Todd Helpbringer,100,Juniors,20-23,M,297.5,197.5,272.5,767.5,SBD,Single-ply,1
Ben Wax Jr,110,Juniors,20-23,M,245,197.5,260,702.5,SBD,Single-ply,1
J. Sellers,125,Juniors,20-23,M,310,172.5,277.5,760,SBD,Single-ply,1
C. Wax,125+,Juniors,20-23,M,140,110,105,355,SBD,Single-ply,1
Paul Griffith,60,Masters 40-44,40-44,M,192.5,107.5,167.5,467.5,SBD,Single-ply,1
Fabian Wambsgans,75,Masters 40-44,40-44,M,245,165,272.5,682.5,SBD,Single-ply,1
J. Edwards,75,Masters 40-44,40-44,M,200,117.5,187.5,505,SBD,Single-ply,2
J. Johnson,75,Masters 40-44,40-44,M,147.5,102.5,170,420,SBD,Single-ply,3
Dwight Hooper,82.5,Masters 40-44,40-44,M,145,145,145,435,SBD,Single-ply,1
K. Roberts,90,Masters 40-44,40-44,M,275,155,260,690,SBD,Single-ply,1
Vince Anello,100,Masters 40-44,40-44,M,250,205,327.5,782.5,SBD,Single-ply,1
Mike Stone #1,100,Masters 40-44,40-44,M,280,192.5,265,737.5,SBD,Single-ply,2
Glenn Stevens,110,Masters 40-44,40-44,M,332.5,200,295,827.5,SBD,Single-ply,1
M. Thomas #7,110,Masters 40-44,40-44,M,182.5,120,205,507.5,SBD,Single-ply,2
John DuMont #1,125,Masters 40-44,40-44,M,282.5,180,285,747.5,SBD,Single-ply,1
Darryl Mayo,125,Masters 40-44,40-44,M,250,170,227.5,647.5,SBD,Single-ply,2
J. Martin,125+,Masters 40-44,40-44,M,182.5,150,250,582.5,SBD,Single-ply,1
Ron Sappenfield,67.5,Masters 45-49,45-49,M,152.5,110,185,447.5,SBD,Single-ply,1
D. Ruggerio,67.5,Masters 45-49,45-49,M,110,52.5,130,292.5,SBD,Single-ply,2
Terry Dangerfield,75,Masters 45-49,45-49,M,267.5,155,277.5,700,SBD,Single-ply,1
John Bayliss,82.5,Masters 45-49,45-49,M,205,142.5,227.5,575,SBD,Single-ply,1
William Wilson,90,Masters 45-49,45-49,M,230,140,242.5,612.5,SBD,Single-ply,1
John Herbein,90,Masters 45-49,45-49,M,177.5,122.5,215,515,SBD,Single-ply,2
Tom Bauers,100,Masters 45-49,45-49,M,235,25,235,495,SBD,Single-ply,1
Butch Turpin,100,Masters 45-49,45-49,M,,,,,SBD,Single-ply,DQ
Carl Klehm,110,Masters 45-49,45-49,M,25,137.5,60,222.5,SBD,Single-ply,1
P. Calcagno,125,Masters 45-49,45-49,M,215,195,250,660,SBD,Single-ply,1
LB Baker,82.5,Masters 50-54,50-54,M,240,162.5,237.5,640,SBD,Single-ply,1
Ernie Frantz,90,Masters 50-54,50-54,M,320,177.5,322.5,820,SBD,Single-ply,1
Spence Woods,100,Masters 50-54,50-54,M,210,130,225,565,SBD,Single-ply,1
Claude Stephens,100,Masters 50-54,50-54,M,187.5,120,205,512.5,SBD,Single-ply,2
James Rummell,110,Masters 50-54,50-54,M,312.5,157.5,290,760,SBD,Single-ply,1
Mike Giardina,110,Masters 50-54,50-54,M,227.5,147.5,205,580,SBD,Single-ply,2
Robert North,110,Masters 50-54,50-54,M,182.5,112.5,195,490,SBD,Single-ply,3
D. Eakin,125,Masters 50-54,50-54,M,205,145,230,580,SBD,Single-ply,1
Joe Liberatore,75,Masters 55-59,55-59,M,187.5,117.5,225,530,SBD,Single-ply,1
C. North,100,Masters 55-59,55-59,M,235,127.5,260,622.5,SBD,Single-ply,1
D. Ciller,75,Masters 60-64,60-64,M,160,125,217.5,502.5,SBD,Single-ply,1
Larry McCauley,90,Masters 60-64,60-64,M,205,160,272.5,637.5,SBD,Single-ply,1
Rich Safreed,110,Masters 60-64,60-64,M,200,112.5,217.5,530,SBD,Single-ply,1
Francis Barrett #1,90,Masters 65-69,65-69,M,137.5,110,195,442.5,SBD,Single-ply,1
Joe Kurpiel,90,Masters 70-74,70-74,M,152.5,100,177.5,430,SBD,Single-ply,1
George Stevens,82.5,Masters 75-79,75-79,M,95,55,122.5,272.5,SBD,Single-ply,1
M. Plumbtree,52,Teen 14-15,14-15,F,47.5,45,105,197.5,SBD,Single-ply,1
J. Greene #6,52,Teen 16-17,16-17,F,120,57.5,130,307.5,SBD,Single-ply,1
Michelle Feece,67.5,Teen 16-17,16-17,F,147.5,67.5,160,375,SBD,Single-ply,1
Donna Secreto,56,Teen 18-19,18-19,F,115,70,137.5,322.5,SBD,Single-ply,1
Diva Hart,48,Juniors,20-23,F,125,52.5,127.5,305,SBD,Single-ply,1
Michelle Feece,67.5,Juniors,20-23,F,147.5,67.5,160,375,SBD,Single-ply,1
S. Sympson,52,Submasters 35-39,35-39,F,142.5,65,142.5,350,SBD,Single-ply,1
Maris Sternberg,82.5,Submasters 35-39,35-39,F,205,110,182.5,497.5,SBD,Single-ply,1
S. Hunter,82.5,Submasters 35-39,35-39,F,122.5,67.5,165,355,SBD,Single-ply,2
Jeanine Farabee,56,Masters 40-44,40-44,F,117.5,57.5,127.5,302.5,SBD,Single-ply,1
E. Martin,56,Masters 45-49,45-49,F,75,45,107.5,227.5,SBD,Single-ply,1
Margaret Orsinger,60,Masters 45-49,45-49,F,72.5,40,95,207.5,SBD,Single-ply,1
E. Bream,67.5,Masters 45-49,45-49,F,177.5,95,165,437.5,SBD,Single-ply,1
Diane Frantz,67.5,Masters 50-54,50-54,F,167.5,97.5,200,465,SBD,Single-ply,1
