Division,WeightClassKg,Place,Name,Team,BodyweightKg,Best3SquatKg,Best3BenchKg,Best3DeadliftKg,TotalKg,Equipment,Event,Sex
Boys,55.79,1,Johney Phelps,Palestine Westwood,51.85,165.56,86.18,154.22,405.97,Single-ply,SBD,M
Boys,55.79,1,Jose Rodriguez #2,Athens,54.93,181.44,120.2,172.37,474,Single-ply,SBD,M
Boys,55.79,2,Leo Rosales,Rusk,55.02,163.29,88.45,158.76,410.5,Single-ply,SBD,M
Boys,55.79,3,Brian Pafford,Cushing,52.62,165.56,92.99,149.69,408.23,Single-ply,SBD,M
Boys,55.79,4,Mason Lindamood,Bullard,52.44,138.35,58.97,131.54,328.85,Single-ply,SBD,M
Boys,55.79,5,Zach Hartman,Troup,55.66,120.2,58.97,102.06,281.23,Single-ply,SBD,M
Boys,59.87,1,Jake Rasberry,Troup,58.92,138.35,68.04,151.95,358.34,Single-ply,SBD,M
Boys,59.87,2,Brayden Mason,Troup,57.29,140.61,74.84,127.01,342.46,Single-ply,SBD,M
Boys,59.87,3,Tristan Pruitt,Brownsboro,58.01,106.59,61.23,145.15,312.98,Single-ply,SBD,M
Boys,59.87,4,Lane Smith,Troup,56.29,106.59,56.7,120.2,283.5,Single-ply,SBD,M
Boys,67.13,1,Jalen Burns,Palestine Westwood,66.95,192.78,77.11,206.38,476.27,Single-ply,SBD,M
Boys,67.13,2,Hunter Miller,Bullard,65.91,158.76,88.45,142.88,390.09,Single-ply,SBD,M
Boys,67.13,3,Matthew Ewalt,Jacksonville,63.37,145.15,97.52,145.15,387.82,Single-ply,SBD,M
Boys,67.13,4,Pj Lewis,Grapeland,66.54,147.42,77.11,156.49,381.02,Single-ply,SBD,M
Boys,67.13,5,Victor Rangel,Crockett,65,136.08,90.72,149.69,376.48,Single-ply,SBD,M
Boys,67.13,6,Trenton Burke,Troup,62.14,154.22,79.38,138.35,371.95,Single-ply,SBD,M
Boys,67.13,7,Alberto Alvarado,Brownsboro,65.18,138.35,68.04,163.29,369.68,Single-ply,SBD,M
Boys,67.13,8,Corey Bonner,Troup,66.95,136.08,77.11,129.27,342.46,Single-ply,SBD,M
Boys,67.13,9,Maalik Hall,Athens,66.27,136.08,68.04,136.08,340.19,Single-ply,SBD,M
Boys,67.13,10,Zach Tollett,Troup,64.05,122.47,79.38,111.13,312.98,Single-ply,SBD,M
Boys,74.84,1,Austin Skelton,Bullard,74.03,219.99,129.27,233.6,582.87,Single-ply,SBD,M
Boys,74.84,2,Chamar Wiley-Harris,Crockett,70.85,201.85,106.59,201.85,510.29,Single-ply,SBD,M
Boys,82.1,3,Chris Bradford,Bullard,75.07,192.78,104.33,185.97,483.08,Single-ply,SBD,M
Boys,74.84,4,Tristan Williams,Rusk,74.16,181.44,115.67,181.44,478.54,Single-ply,SBD,M
Boys,82.1,5,Ty Bielss,Canton,74.93,165.56,106.59,201.85,474,Single-ply,SBD,M
Boys,74.84,6,Brett Martin,Troup,69.99,170.1,99.79,185.97,455.86,Single-ply,SBD,M
Boys,74.84,7,Jared Alsobrook,Bullard,70.4,181.44,95.25,165.56,442.25,Single-ply,SBD,M
Boys,74.84,8,Brent Mason,Brownsboro,69.4,158.76,86.18,183.7,428.64,Single-ply,SBD,M
Boys,74.84,9,Dedrick Tatum,Jacksonville,71.8,161.03,88.45,172.37,421.84,Single-ply,SBD,M
Boys,74.84,10,Donavan Yelley,Bullard,74.03,170.1,88.45,158.76,417.3,Single-ply,SBD,M
Boys,74.84,11,Matt Scruggs,Troup,69.9,147.42,102.06,165.56,415.04,Single-ply,SBD,M
Boys,74.84,12,Bradley Brown,Canton,70.22,133.81,83.91,165.56,383.29,Single-ply,SBD,M
Boys,74.84,13,Luke LaCroix,Brownsboro,71.58,149.69,70.31,163.29,383.29,Single-ply,SBD,M
Boys,74.84,14,Keaton Treadway,Canton,70.94,136.08,70.31,147.42,353.8,Single-ply,SBD,M
Boys,74.84,15,Clayton Arnold,Canton,73.62,122.47,65.77,163.29,351.53,Single-ply,SBD,M
Boys,82.1,1,Aaron Johnson #13,Bullard,81.24,283.5,140.61,249.48,673.58,Single-ply,SBD,M
Boys,82.1,2,Tommy Pettigrew,Bullard,80.38,213.19,108.86,233.6,555.65,Single-ply,SBD,M
Boys,82.1,3,Brentavian Henderson,Bullard,79.38,217.72,133.81,195.04,546.58,Single-ply,SBD,M
Boys,82.1,4,Aaron Ashley,Brownsboro,79.38,172.37,92.99,167.83,433.18,Single-ply,SBD,M
Boys,82.1,5,Riley Burrus,Canton,80.6,170.1,74.84,170.1,415.04,Single-ply,SBD,M
Boys,82.1,6,ViJuan High,Jacksonville,77.02,149.69,90.72,161.03,401.43,Single-ply,SBD,M
Boys,82.1,7,DeAnthony Epps,Crockett,76.61,158.76,81.65,158.76,399.16,Single-ply,SBD,M
Boys,82.1,8,Garret Self,Longview Spring Hill,78.24,149.69,83.91,142.88,376.48,Single-ply,SBD,M
Boys,82.1,9,Latravious Bell,Crockett,78.88,142.88,81.65,145.15,369.68,Single-ply,SBD,M
Boys,82.1,10,Tevin White,Jacksonville,80.1,145.15,83.91,136.08,365.14,Single-ply,SBD,M
Boys,82.1,11,Nathan Wright,Brownsboro,76.25,131.54,79.38,149.69,360.61,Single-ply,SBD,M
Boys,82.1,12,Blake Attaway,Troup,76.7,138.35,81.65,129.27,349.27,Single-ply,SBD,M
Boys,89.81,1,Tristan Moore,Brownsboro,88.86,222.26,136.08,213.19,571.53,Single-ply,SBD,M
Boys,99.79,2,Tyler Wilbanks,Rusk,90.04,231.33,120.2,172.37,523.9,Single-ply,SBD,M
Boys,89.81,3,Jonathan Ware,Crockett,88.18,197.31,127.01,195.04,519.36,Single-ply,SBD,M
Boys,89.81,4,David McNabb,Crockett,88.18,206.38,99.79,208.65,514.83,Single-ply,SBD,M
Boys,89.81,5,Nick Wright #2,Brownsboro,85,172.37,92.99,197.31,462.66,Single-ply,SBD,M
Boys,89.81,6,Noah Bush,Athens,88.41,174.63,113.4,174.63,462.66,Single-ply,SBD,M
Boys,89.81,7,Dillon Green,Longview Spring Hill,86.5,151.95,92.99,149.69,394.63,Single-ply,SBD,M
Boys,89.81,DQ,Barrett Senyckji,Athens,88.81,181.44,92.99,,,Single-ply,SBD,M
Boys,99.79,1,Hunter Phelps,Bullard,99.34,285.76,142.88,222.26,650.91,Single-ply,SBD,M
Boys,99.79,2,Aaron Chitwood,Brownsboro,93.67,249.48,142.88,229.06,621.42,Single-ply,SBD,M
Boys,99.79,3,Logan Fuller,Athens,95.98,229.06,120.2,204.12,553.38,Single-ply,SBD,M
Boys,99.79,4,Jb Medley,Canton,98.47,199.58,113.4,167.83,480.81,Single-ply,SBD,M
Boys,99.79,5,Blane Peveler,Longview Spring Hill,98.07,172.37,97.52,192.78,462.66,Single-ply,SBD,M
Boys,99.79,6,Carter Shelton,Longview Spring Hill,92.85,165.56,102.06,163.29,430.91,Single-ply,SBD,M
Boys,99.79,7,Kyle Adams,Canton,94.85,142.88,102.06,145.15,390.09,Single-ply,SBD,M
Boys,99.79,8,Chris Fletcher,Rusk,92.26,136.08,61.23,136.08,333.39,Single-ply,SBD,M
Boys,99.79,DQ,Cameron Hawkins,Longview Spring Hill,99.34,163.29,,,,Single-ply,SBD,M
Boys,99.79,DQ,D'Luis West,Troup,98.47,,,,,Single-ply,SBD,M
Boys,124.74,1,Tristan Bishop,Bullard,110,240.4,158.76,199.58,598.74,Single-ply,SBD,M
Boys,109.77,2,Josh Ambroson,Jacksonville,105.69,197.31,108.86,204.12,510.29,Single-ply,SBD,M
Boys,109.77,3,Oscar Mendoza,Jacksonville,101.33,192.78,102.06,167.83,462.66,Single-ply,SBD,M
Boys,109.77,4,Brandon McIe,Brownsboro,101.02,136.08,79.38,170.1,385.55,Single-ply,SBD,M
Boys,109.77,DQ,Caleb Hallford,Bullard,100.7,238.14,,,,Single-ply,SBD,M
Boys,124.74,1,Dorian Schutt,Bullard,110.68,235.87,138.35,260.82,635.03,Single-ply,SBD,M
Boys,124.74,2,Zach Swearingen,Rusk,111.95,254.01,127.01,217.72,598.74,Single-ply,SBD,M
Boys,124.74,3,Austin Cruz,Cushing,112.17,226.8,117.93,215.46,560.19,Single-ply,SBD,M
Boys,124.74,4,Devion McGowan,Jacksonville,121.06,231.33,113.4,215.46,560.19,Single-ply,SBD,M
Boys,124.74,5,Bryce Hoffman,Rusk,114.62,229.06,117.93,199.58,546.58,Single-ply,SBD,M
Boys,124.74,6,Jake Allen,Bullard,119.34,226.8,113.4,204.12,544.31,Single-ply,SBD,M
Boys,124.74,7,Hunter Hicks #1,Longview Spring Hill,113.94,208.65,122.47,181.44,512.56,Single-ply,SBD,M
Boys,124.74,8,Chad Walker #2,Athens,112.67,199.58,120.2,188.24,508.02,Single-ply,SBD,M
Boys,124.74,9,Isiah Hale,Athens,120.88,181.44,99.79,156.49,437.72,Single-ply,SBD,M
Boys,124.74,10,Josh Britain,Longview Spring Hill,115.94,181.44,106.59,142.88,430.91,Single-ply,SBD,M
Boys,124.74,11,Nate Flowers,Jacksonville,117.71,158.76,97.52,142.88,399.16,Single-ply,SBD,M
Boys,124.74,12,Cody Braun,Crockett,123.2,147.42,95.25,147.42,390.09,Single-ply,SBD,M
Boys,124.74+,1,Taylor McBride,Cushing,129.91,249.48,124.74,215.46,589.67,Single-ply,SBD,M
Boys,124.74+,2,Keanan Ivory,Canton,147.28,247.21,115.67,206.38,569.26,Single-ply,SBD,M
Boys,124.74+,3,Joshua West,Athens,137.48,240.4,111.13,195.04,546.58,Single-ply,SBD,M
Boys,124.74+,4,Scott Sparks,Longview Spring Hill,143.88,188.24,122.47,188.24,498.95,Single-ply,SBD,M
Boys,124.74+,5,Jaren Kubina,Jacksonville,126.28,192.78,97.52,163.29,453.59,Single-ply,SBD,M
